/* XPM */
static char * icon_48x48_xpm[] = {
"48 48 1157 2",
"  	c None",
". 	c #FFFFFF",
"+ 	c #FDFCFC",
"@ 	c #CAACAC",
"# 	c #BE9494",
"$ 	c #933B3B",
"% 	c #994C4C",
"& 	c #E6D8D8",
"* 	c #F9FAFA",
"= 	c #EAEEEF",
"- 	c #C3ACAD",
"; 	c #A24C4B",
"> 	c #8B1111",
", 	c #982121",
"' 	c #A33232",
") 	c #A73635",
"! 	c #954646",
"~ 	c #E0E1E2",
"{ 	c #E6E9EB",
"] 	c #E5E8E9",
"^ 	c #E5E8EA",
"/ 	c #E6E8EA",
"( 	c #E6E9EA",
"_ 	c #F5F6F7",
": 	c #B3BCC0",
"< 	c #A1B0B5",
"[ 	c #8B868B",
"} 	c #7F1515",
"| 	c #900C0B",
"1 	c #951919",
"2 	c #9C2727",
"3 	c #A23434",
"4 	c #A93C3B",
"5 	c #8D3535",
"6 	c #8C969C",
"7 	c #93A2A8",
"8 	c #94A1A7",
"9 	c #95A2A8",
"0 	c #96A3A9",
"a 	c #97A5AA",
"b 	c #9AA6AC",
"c 	c #9CA8AE",
"d 	c #9DA9AF",
"e 	c #9EAAB0",
"f 	c #9FABB1",
"g 	c #A0ACB2",
"h 	c #A1ADB3",
"i 	c #A2ADB4",
"j 	c #A2AEB4",
"k 	c #A3AFB5",
"l 	c #A4B2B9",
"m 	c #A5B6BD",
"n 	c #A6B5BB",
"o 	c #A7B3B9",
"p 	c #A8B2B9",
"q 	c #A9B4BA",
"r 	c #AAB5BB",
"s 	c #ABB6BC",
"t 	c #ADB7BD",
"u 	c #AEB8BF",
"v 	c #AFB9C0",
"w 	c #B4BDC3",
"x 	c #B7BFC4",
"y 	c #DBDFE1",
"z 	c #C7CDD0",
"A 	c #8B999F",
"B 	c #728B92",
"C 	c #674044",
"D 	c #850403",
"E 	c #901010",
"F 	c #941B1B",
"G 	c #9A2625",
"H 	c #A13131",
"I 	c #A93E3D",
"J 	c #973131",
"K 	c #5E666C",
"L 	c #5E7880",
"M 	c #60767E",
"N 	c #61777F",
"O 	c #627880",
"P 	c #637981",
"Q 	c #637982",
"R 	c #647A83",
"S 	c #657B84",
"T 	c #667C85",
"U 	c #677D86",
"V 	c #677E87",
"W 	c #687F88",
"X 	c #697F88",
"Y 	c #6A818A",
"Z 	c #6D8791",
"` 	c #6D757D",
" .	c #6F5F66",
"..	c #74757D",
"+.	c #7C8D96",
"@.	c #8296A1",
"#.	c #889BA6",
"$.	c #8EA0AC",
"%.	c #95A6B2",
"&.	c #9CACB8",
"*.	c #A3B2BF",
"=.	c #ABB9C6",
"-.	c #B3C0CE",
";.	c #BCC8D6",
">.	c #C1CBD8",
",.	c #B9C2CA",
"'.	c #BEC5CA",
").	c #FAFAFB",
"!.	c #C8CED1",
"~.	c #939FA5",
"{.	c #7D8D93",
"].	c #61757C",
"^.	c #69848B",
"/.	c #6E4043",
"(.	c #860505",
"_.	c #941A1A",
":.	c #992424",
"<.	c #9F2F2F",
"[.	c #A73E3D",
"}.	c #A33433",
"|.	c #6C3E42",
"1.	c #5B777F",
"2.	c #5E757D",
"3.	c #5F767E",
"4.	c #60767F",
"5.	c #607880",
"6.	c #617781",
"7.	c #627982",
"8.	c #637983",
"9.	c #647A84",
"0.	c #647B85",
"a.	c #657C86",
"b.	c #667D86",
"c.	c #667D87",
"d.	c #68828C",
"e.	c #6B747C",
"f.	c #702B2D",
"g.	c #741717",
"h.	c #6D393C",
"i.	c #798E98",
"j.	c #80949F",
"k.	c #8598A3",
"l.	c #8B9DA9",
"m.	c #91A3AF",
"n.	c #98A9B5",
"o.	c #9FAFBC",
"p.	c #A7B6C3",
"q.	c #AFBCCA",
"r.	c #B7C3D1",
"s.	c #BFCBDA",
"t.	c #C4CFDF",
"u.	c #C0CAD5",
"v.	c #BFC6CA",
"w.	c #E8EAEC",
"x.	c #929FA5",
"y.	c #7C8C92",
"z.	c #62767D",
"A.	c #7C8E94",
"B.	c #8FA5AB",
"C.	c #7F6366",
"D.	c #800404",
"E.	c #900F0F",
"F.	c #941919",
"G.	c #982323",
"H.	c #9F2E2D",
"I.	c #A83938",
"J.	c #A22C2B",
"K.	c #684E53",
"L.	c #5C7880",
"M.	c #5F757D",
"N.	c #617880",
"O.	c #627881",
"P.	c #647B84",
"Q.	c #657C85",
"R.	c #677E86",
"S.	c #66858F",
"T.	c #774447",
"U.	c #9F1F1D",
"V.	c #7E2E30",
"W.	c #728790",
"X.	c #79909B",
"Y.	c #7E929C",
"Z.	c #8497A2",
"`.	c #899CA7",
" +	c #8FA1AC",
".+	c #9CACB9",
"++	c #AAB8C5",
"@+	c #B1BFCC",
"#+	c #B9C5D3",
"$+	c #C0CCDA",
"%+	c #C5D0DF",
"&+	c #BBC5D0",
"*+	c #DFE2E5",
"=+	c #BDC4C9",
"-+	c #88969C",
";+	c #7D8F94",
">+	c #90A0A5",
",+	c #95A7AE",
"'+	c #88858A",
")+	c #7F0D0D",
"!+	c #900E0E",
"~+	c #931818",
"{+	c #982221",
"]+	c #972727",
"^+	c #8C2727",
"/+	c #852121",
"(+	c #606369",
"_+	c #5D777F",
":+	c #60757E",
"<+	c #617780",
"[+	c #637A82",
"}+	c #647B83",
"|+	c #657C84",
"1+	c #667F88",
"2+	c #658791",
"3+	c #667077",
"4+	c #912626",
"5+	c #8D2525",
"6+	c #6F6C73",
"7+	c #738E99",
"8+	c #778C96",
"9+	c #7C909A",
"0+	c #81949F",
"a+	c #8699A4",
"b+	c #8C9DA9",
"c+	c #92A3AF",
"d+	c #9FAFBB",
"e+	c #A5B4C1",
"f+	c #ABB9C7",
"g+	c #B2BFCD",
"h+	c #BAC6D4",
"i+	c #C0CBDB",
"j+	c #C6D1DF",
"k+	c #BCC5CA",
"l+	c #9DA8AE",
"m+	c #708188",
"n+	c #6D8087",
"o+	c #8E9DA3",
"p+	c #96AFB6",
"q+	c #826A6E",
"r+	c #7F0404",
"s+	c #921717",
"t+	c #9A1E1E",
"u+	c #862526",
"v+	c #57646B",
"w+	c #596C74",
"x+	c #5A7780",
"y+	c #5B7880",
"z+	c #5D7880",
"A+	c #5F777F",
"B+	c #627981",
"C+	c #647E87",
"D+	c #64838C",
"E+	c #637780",
"F+	c #6D484D",
"G+	c #861717",
"H+	c #822021",
"I+	c #686E75",
"J+	c #6D8A94",
"K+	c #758A94",
"L+	c #7A8E98",
"M+	c #7E929D",
"N+	c #8396A1",
"O+	c #94A5B1",
"P+	c #9AAAB6",
"Q+	c #A0B0BC",
"R+	c #A6B5C2",
"S+	c #ACBAC8",
"T+	c #C1CCDC",
"U+	c #BDC7D2",
"V+	c #919DA4",
"W+	c #677A80",
"X+	c #7E8F95",
"Y+	c #93A1A7",
"Z+	c #93A4AB",
"`+	c #8A8A8F",
" @	c #7D3335",
".@	c #880707",
"+@	c #8E0F0F",
"@@	c #921616",
"#@	c #991E1E",
"$@	c #8D2424",
"%@	c #615B60",
"&@	c #61636A",
"*@	c #695258",
"=@	c #6C4D51",
"-@	c #665B61",
";@	c #5C6B72",
">@	c #5B7780",
",@	c #5D7B84",
"'@	c #5E7C85",
")@	c #607D86",
"!@	c #627E88",
"~@	c #617F89",
"{@	c #637179",
"]@	c #6C484C",
"^@	c #811718",
"/@	c #8B0000",
"(@	c #762B2E",
"_@	c #65757E",
":@	c #6A8690",
"<@	c #6D838C",
"[@	c #70858F",
"}@	c #738892",
"|@	c #7B909A",
"1@	c #80949E",
"2@	c #8A9CA8",
"3@	c #8FA1AD",
"4@	c #9BABB8",
"5@	c #A0B0BD",
"6@	c #ACBAC7",
"7@	c #B1BECC",
"8@	c #B8C4D3",
"9@	c #BAC6D2",
"0@	c #8C999F",
"a@	c #667A80",
"b@	c #87979D",
"c@	c #93A3A9",
"d@	c #93A5AB",
"e@	c #702B2C",
"f@	c #780100",
"g@	c #8D0D0D",
"h@	c #8D0E0E",
"i@	c #911414",
"j@	c #961D1D",
"k@	c #9A2525",
"l@	c #992727",
"m@	c #9C302F",
"n@	c #A83C3B",
"o@	c #B14A48",
"p@	c #B04F4E",
"q@	c #984949",
"r@	c #804E51",
"s@	c #7A5256",
"t@	c #745458",
"u@	c #6D595E",
"v@	c #685D63",
"w@	c #724448",
"x@	c #851818",
"y@	c #910403",
"z@	c #880706",
"A@	c #6D4549",
"B@	c #64818A",
"C@	c #67828C",
"D@	c #697F89",
"E@	c #6B828B",
"F@	c #6E848E",
"G@	c #718790",
"H@	c #748A94",
"I@	c #788D97",
"J@	c #7D919B",
"K@	c #8195A0",
"L@	c #90A2AD",
"M@	c #9AAAB7",
"N@	c #A0AFBC",
"O@	c #A9B8C5",
"P@	c #B0BDCB",
"Q@	c #ADBBC7",
"R@	c #89979D",
"S@	c #697C82",
"T@	c #8A9BA0",
"U@	c #92A4AB",
"V@	c #702D2E",
"W@	c #7F0606",
"X@	c #8E0D0D",
"Y@	c #8F1110",
"Z@	c #951B1B",
"`@	c #A23131",
" #	c #A83F3E",
".#	c #B04E4E",
"+#	c #BA605F",
"@#	c #C36F6E",
"##	c #C6716F",
"$#	c #BF5F5D",
"%#	c #B74F4E",
"&#	c #AF403F",
"*#	c #A53230",
"=#	c #991F1E",
"-#	c #950D0C",
";#	c #900504",
">#	c #7B1C1D",
",#	c #665E64",
"'#	c #64848D",
")#	c #677F88",
"!#	c #6A8089",
"~#	c #6C828C",
"{#	c #6F858E",
"]#	c #728892",
"^#	c #768B95",
"/#	c #7A8E99",
"(#	c #879AA5",
"_#	c #95A5B1",
":#	c #99A9B6",
"<#	c #9EADBA",
"[#	c #A2B1BE",
"}#	c #A8B6C4",
"|#	c #A5B4BF",
"1#	c #697D83",
"2#	c #8C9CA1",
"3#	c #93A8AE",
"4#	c #763F41",
"5#	c #820505",
"6#	c #951C1C",
"7#	c #9A2626",
"8#	c #9E2E2D",
"9#	c #A53C3B",
"0#	c #AC4543",
"a#	c #A33837",
"b#	c #9E3635",
"c#	c #9D3232",
"d#	c #992B2B",
"e#	c #952222",
"f#	c #901A1A",
"g#	c #8C1A1A",
"h#	c #87191A",
"i#	c #821414",
"j#	c #6D3B3F",
"k#	c #62777F",
"l#	c #64828B",
"m#	c #6B818A",
"n#	c #6D838D",
"o#	c #70868F",
"p#	c #738992",
"q#	c #778B95",
"r#	c #7A8F99",
"s#	c #7F929D",
"t#	c #8296A0",
"u#	c #869AA5",
"v#	c #8B9DA8",
"w#	c #93A4B0",
"x#	c #97A7B4",
"y#	c #9BABB7",
"z#	c #9CACB7",
"A#	c #94AAB1",
"B#	c #7E5D60",
"C#	c #7E0403",
"D#	c #9C2929",
"E#	c #9E2D2D",
"F#	c #A43433",
"G#	c #953130",
"H#	c #62494D",
"I#	c #5D575D",
"J#	c #5F565B",
"K#	c #5F575C",
"L#	c #60575D",
"M#	c #605A60",
"N#	c #60676E",
"O#	c #617077",
"P#	c #61737B",
"Q#	c #617F88",
"R#	c #647E88",
"S#	c #698089",
"T#	c #6E848D",
"U#	c #748993",
"V#	c #8A9CA7",
"W#	c #8D9FAB",
"X#	c #91A2AE",
"Y#	c #98A9B6",
"Z#	c #97A7B2",
"`#	c #88959C",
" $	c #8B9CA1",
".$	c #94A9AF",
"+$	c #826F73",
"@$	c #7A0605",
"#$	c #9B2626",
"$$	c #9F2E2E",
"%$	c #A32E2D",
"&$	c #793637",
"*$	c #577880",
"=$	c #5C787F",
"-$	c #5E7981",
";$	c #5E7A82",
">$	c #5F7B83",
",$	c #617A83",
"'$	c #607D85",
")$	c #5F7E87",
"!$	c #617078",
"~$	c #607981",
"{$	c #638089",
"]$	c #657F88",
"^$	c #678089",
"/$	c #677F89",
"($	c #718791",
"_$	c #778D96",
":$	c #7A8F98",
"<$	c #7D919C",
"[$	c #81959F",
"}$	c #889AA6",
"|$	c #8A9DA9",
"1$	c #8DA0AB",
"2$	c #90A2AC",
"3$	c #667A81",
"4$	c #8A9AA0",
"5$	c #94A7AD",
"6$	c #878286",
"7$	c #770B0B",
"8$	c #8E0C0C",
"9$	c #8F1111",
"0$	c #972120",
"a$	c #9E2725",
"b$	c #6A4549",
"c$	c #59777F",
"d$	c #5D727A",
"e$	c #5D737B",
"f$	c #5E747C",
"g$	c #5D7A83",
"h$	c #5B767F",
"i$	c #606970",
"j$	c #6F4F53",
"k$	c #8E3F3F",
"l$	c #9D4342",
"m$	c #883F40",
"n$	c #6E595E",
"o$	c #656B72",
"p$	c #636F76",
"q$	c #63727B",
"r$	c #637C86",
"s$	c #64828C",
"t$	c #67858F",
"u$	c #698691",
"v$	c #6A868F",
"w$	c #6F8791",
"x$	c #74909B",
"y$	c #79949F",
"z$	c #7C929D",
"A$	c #7F939D",
"B$	c #8B9EA9",
"C$	c #8B9CA6",
"D$	c #64777E",
"E$	c #88999E",
"F$	c #8C9297",
"G$	c #741414",
"H$	c #8C0B0B",
"I$	c #921716",
"J$	c #992323",
"K$	c #9E2524",
"L$	c #773335",
"M$	c #58737B",
"N$	c #5C747C",
"O$	c #59757E",
"P$	c #5C656C",
"Q$	c #6C5459",
"R$	c #814648",
"S$	c #9E4140",
"T$	c #B55251",
"U$	c #BF6361",
"V$	c #C06967",
"W$	c #BE6160",
"X$	c #B35251",
"Y$	c #A64747",
"Z$	c #9C4343",
"`$	c #974141",
" %	c #8E3D3E",
".%	c #864143",
"+%	c #7F474A",
"@%	c #7E4A4E",
"#%	c #804A4D",
"$%	c #823F41",
"%%	c #843435",
"&%	c #83393B",
"*%	c #7E4B4F",
"=%	c #74646B",
"-%	c #748791",
";%	c #7A95A0",
">%	c #7F939E",
",%	c #8598A1",
"'%	c #63777E",
")%	c #87989D",
"!%	c #92A2A8",
"~%	c #90A0A6",
"{%	c #732425",
"]%	c #890807",
"^%	c #8F1010",
"/%	c #901313",
"(%	c #961E1E",
"_%	c #9C2424",
":%	c #8D2222",
"<%	c #59646B",
"[%	c #596E75",
"}%	c #674D52",
"|%	c #804042",
"1%	c #9B4141",
"2%	c #B34E4D",
"3%	c #BE5F5D",
"4%	c #BF6C6A",
"5%	c #BF6866",
"6%	c #BA5957",
"7%	c #B75351",
"8%	c #B85958",
"9%	c #BC6261",
"0%	c #BE6564",
"a%	c #BE6361",
"b%	c #BB5C5A",
"c%	c #B7514F",
"d%	c #B03F3D",
"e%	c #A82E2C",
"f%	c #A01D1B",
"g%	c #9E1D1B",
"h%	c #A4302F",
"i%	c #AA3938",
"j%	c #A72B28",
"k%	c #961816",
"l%	c #861F1F",
"m%	c #764D53",
"n%	c #778F9A",
"o%	c #7A8F9A",
"p%	c #7C909B",
"q%	c #81939C",
"r%	c #92A1A7",
"s%	c #94A9B0",
"t%	c #7A4C4E",
"u%	c #830403",
"v%	c #972020",
"w%	c #982222",
"x%	c #7B2B2C",
"y%	c #8B2D2E",
"z%	c #A23130",
"A%	c #B24847",
"B%	c #BB5F5E",
"C%	c #BF6B69",
"D%	c #BE6A67",
"E%	c #BE6B68",
"F%	c #B95B59",
"G%	c #9F3636",
"H%	c #7B3436",
"I%	c #7E2627",
"J%	c #8B1817",
"K%	c #971C1B",
"L%	c #A12726",
"M%	c #A12928",
"N%	c #9D2827",
"O%	c #962726",
"P%	c #8C2828",
"Q%	c #7C2A2C",
"R%	c #6E3A3E",
"S%	c #781F21",
"T%	c #920706",
"U%	c #901A19",
"V%	c #7A3C3E",
"W%	c #754B4F",
"X%	c #77383B",
"Y%	c #715F66",
"Z%	c #738A95",
"`%	c #758A95",
" &	c #7C8F98",
".&	c #8B989E",
"+&	c #62767C",
"@&	c #837377",
"#&	c #7A0505",
"$&	c #8F0D0D",
"%&	c #8E0F0E",
"&&	c #9E2726",
"*&	c #A43130",
"=&	c #A83E3D",
"-&	c #AD4948",
";&	c #B35454",
">&	c #BA6361",
",&	c #BE6A68",
"'&	c #B75957",
")&	c #912524",
"!&	c #634A4E",
"~&	c #5C7A83",
"{&	c #5E7780",
"]&	c #61656C",
"^&	c #664549",
"/&	c #703437",
"(&	c #6F3639",
"_&	c #67464B",
":&	c #645F66",
"<&	c #63747D",
"[&	c #637E87",
"}&	c #64868F",
"|&	c #65747C",
"1&	c #713538",
"2&	c #6A5056",
"3&	c #66848E",
"4&	c #698892",
"5&	c #6B8892",
"6&	c #6E8993",
"7&	c #6F858F",
"8&	c #718690",
"9&	c #728891",
"0&	c #758B94",
"a&	c #778B93",
"b&	c #8F9CA1",
"c&	c #8F9EA4",
"d&	c #792525",
"e&	c #8A0808",
"f&	c #8E1010",
"g&	c #951D1C",
"h&	c #992423",
"i&	c #9E2C2B",
"j&	c #A23535",
"k&	c #A8403F",
"l&	c #AE4C4B",
"m&	c #B55A59",
"n&	c #BB6463",
"o&	c #9F2A29",
"p&	c #653E42",
"q&	c #5D7E87",
"r&	c #617C84",
"s&	c #618088",
"t&	c #618189",
"u&	c #63818A",
"v&	c #648089",
"w&	c #657E87",
"x&	c #668089",
"y&	c #65858E",
"z&	c #66848D",
"A&	c #6B818B",
"B&	c #708690",
"C&	c #758891",
"D&	c #909CA2",
"E&	c #94AAB0",
"F&	c #794143",
"G&	c #820404",
"H&	c #931919",
"I&	c #961F1E",
"J&	c #9F2F2E",
"K&	c #A43938",
"L&	c #A94343",
"M&	c #B15150",
"N&	c #B45756",
"O&	c #961A19",
"P&	c #654C52",
"Q&	c #5E7B84",
"R&	c #667D85",
"S&	c #71858E",
"T&	c #7F696D",
"U&	c #790505",
"V&	c #921515",
"W&	c #941A1B",
"X&	c #972121",
"Y&	c #9C2828",
"Z&	c #A03131",
"`&	c #A53B3A",
" *	c #AC4847",
".*	c #971B1B",
"+*	c #654A4F",
"@*	c #5D7B83",
"#*	c #60777F",
"$*	c #6E828A",
"%*	c #61767C",
"&*	c #92A4A9",
"**	c #8B969B",
"=*	c #76191A",
"-*	c #8A0A0A",
";*	c #901212",
">*	c #9D2B2B",
",*	c #A94241",
"'*	c #951313",
")*	c #673D40",
"!*	c #5C7B83",
"~*	c #6D8189",
"{*	c #8E9CA1",
"]*	c #90A1A6",
"^*	c #8EA2A7",
"/*	c #742C2E",
"(*	c #830606",
"_*	c #8E100F",
":*	c #A33737",
"<*	c #9B2727",
"[*	c #8F0A0A",
"}*	c #791B1C",
"|*	c #5C6E75",
"1*	c #5E767E",
"2*	c #6C8188",
"3*	c #93A0A5",
"4*	c #91A1A6",
"5*	c #8F9FA5",
"6*	c #8EA4A9",
"7*	c #723638",
"8*	c #7C0505",
"9*	c #931918",
"0*	c #9C2829",
"a*	c #8F0909",
"b*	c #801415",
"c*	c #5C6D74",
"d*	c #5D757D",
"e*	c #697E85",
"f*	c #95A2A7",
"g*	c #8E9EA4",
"h*	c #8EA4AA",
"i*	c #7C6569",
"j*	c #790605",
"k*	c #8B0707",
"l*	c #63474C",
"m*	c #5B777E",
"n*	c #5D727B",
"o*	c #5F747D",
"p*	c #61767F",
"q*	c #687D84",
"r*	c #93A2A7",
"s*	c #8E9FA4",
"t*	c #8D9DA2",
"u*	c #8CA2A8",
"v*	c #80777C",
"w*	c #770707",
"x*	c #8C0D0D",
"y*	c #8E0E0E",
"z*	c #8F0606",
"A*	c #702A2B",
"B*	c #59737B",
"C*	c #5C727A",
"D*	c #5D737A",
"E*	c #5E737B",
"F*	c #5F747C",
"G*	c #60777E",
"H*	c #687C84",
"I*	c #8F9FA4",
"J*	c #8D9DA3",
"K*	c #8C9CA2",
"L*	c #8BA1A7",
"M*	c #7F7579",
"N*	c #750707",
"O*	c #8B0D0D",
"P*	c #8E0909",
"Q*	c #70282A",
"R*	c #586E75",
"S*	c #5B737A",
"T*	c #5B7178",
"U*	c #5C7179",
"V*	c #5E747B",
"W*	c #677B82",
"X*	c #86979C",
"Y*	c #8B9BA1",
"Z*	c #8AA0A6",
"`*	c #7E7378",
" =	c #730707",
".=	c #890D0D",
"+=	c #8E0908",
"@=	c #6F2D2F",
"#=	c #56747C",
"$=	c #5A7077",
"%=	c #5B7077",
"&=	c #5B7078",
"*=	c #5C7178",
"==	c #637A83",
"-=	c #667981",
";=	c #97A3A8",
">=	c #61757B",
",=	c #84959B",
"'=	c #899AA0",
")=	c #899EA5",
"!=	c #7C7378",
"~=	c #710707",
"{=	c #870C0C",
"]=	c #910A0A",
"^=	c #8B0100",
"/=	c #643C3F",
"(=	c #58727A",
"_=	c #5A6F77",
":=	c #5C7279",
"<=	c #5F757C",
"[=	c #657881",
"}=	c #99A5AB",
"|=	c #60747B",
"1=	c #83949A",
"2=	c #88989F",
"3=	c #879EA4",
"4=	c #7B7277",
"5=	c #700707",
"6=	c #840C0C",
"7=	c #900A0A",
"8=	c #8F0505",
"9=	c #7B191A",
"0=	c #634043",
"a=	c #5F464A",
"b=	c #596C72",
"c=	c #596F76",
"d=	c #5A6F76",
"e=	c #657880",
"f=	c #5F747B",
"g=	c #829399",
"h=	c #8B9CA2",
"i=	c #88989E",
"j=	c #87979E",
"k=	c #869CA3",
"l=	c #7B7276",
"m=	c #6E0707",
"n=	c #810C0C",
"o=	c #7A1A1B",
"p=	c #654145",
"q=	c #57666C",
"r=	c #56757C",
"s=	c #577279",
"t=	c #586D74",
"u=	c #596D74",
"v=	c #596E76",
"w=	c #5E757C",
"x=	c #60767D",
"y=	c #5F767D",
"z=	c #63757D",
"A=	c #819298",
"B=	c #88999F",
"C=	c #86979E",
"D=	c #85969D",
"E=	c #859BA2",
"F=	c #7A7378",
"G=	c #6E0908",
"H=	c #800C0C",
"I=	c #791A1B",
"J=	c #56656C",
"K=	c #55757D",
"L=	c #586F76",
"M=	c #62757C",
"N=	c #98A4AA",
"O=	c #5F747A",
"P=	c #7F9197",
"Q=	c #89999F",
"R=	c #8399A1",
"S=	c #797278",
"T=	c #6C0808",
"U=	c #7D0C0C",
"V=	c #8F0B0B",
"W=	c #8E0302",
"X=	c #672E30",
"Y=	c #567279",
"Z=	c #9CA8AD",
"`=	c #5F737A",
" -	c #7E9097",
".-	c #87989E",
"+-	c #83959B",
"@-	c #82949B",
"#-	c #8298A0",
"$-	c #787277",
"%-	c #6B0808",
"&-	c #7B0C0B",
"*-	c #7F1313",
"=-	c #624549",
"--	c #596F75",
";-	c #5B7179",
">-	c #61747B",
",-	c #A1ACB0",
"'-	c #5E737A",
")-	c #7D8F96",
"!-	c #86979D",
"~-	c #84959C",
"{-	c #82949A",
"]-	c #819399",
"^-	c #81979E",
"/-	c #777176",
"(-	c #6A0808",
"_-	c #7A0C0B",
":-	c #870D0D",
"<-	c #861011",
"[-	c #5E575C",
"}-	c #54767D",
"|-	c #586D75",
"1-	c #607379",
"2-	c #A0ABB0",
"3-	c #7C8E95",
"4-	c #81939A",
"5-	c #809299",
"6-	c #80969D",
"7-	c #777075",
"8-	c #6A0908",
"9-	c #780B0B",
"0-	c #850D0D",
"a-	c #811D1E",
"b-	c #647C83",
"c-	c #597077",
"d-	c #5F7379",
"e-	c #7B8D94",
"f-	c #7F9198",
"g-	c #7F969D",
"h-	c #756B70",
"i-	c #670303",
"j-	c #730808",
"k-	c #800C0B",
"l-	c #890A0A",
"m-	c #6E5E63",
"n-	c #647E85",
"o-	c #5A6E76",
"p-	c #5E7178",
"q-	c #99A6AB",
"r-	c #7A8C93",
"s-	c #809198",
"t-	c #7E9197",
"u-	c #7D8F97",
"v-	c #7C9199",
"w-	c #788289",
"x-	c #682123",
"y-	c #6C1B1C",
"z-	c #6F0B0B",
"A-	c #830B0A",
"B-	c #8F0605",
"C-	c #79383B",
"D-	c #6E8991",
"E-	c #63787F",
"F-	c #5D7076",
"G-	c #9DAAAE",
"H-	c #5E7279",
"I-	c #798B92",
"J-	c #7C8E96",
"K-	c #7A919A",
"L-	c #737077",
"M-	c #737D84",
"N-	c #6D5D62",
"O-	c #721111",
"P-	c #8D0B0B",
"Q-	c #8F0707",
"R-	c #7E3033",
"S-	c #718B94",
"T-	c #6F838B",
"U-	c #647880",
"V-	c #576C73",
"W-	c #A0ADB2",
"X-	c #5D7178",
"Y-	c #768990",
"Z-	c #7E9198",
"`-	c #788A92",
" ;	c #778C94",
".;	c #758B93",
"+;	c #74929B",
"@;	c #6D3C40",
"#;	c #850605",
"$;	c #900707",
"%;	c #7E3235",
"&;	c #718B95",
"*;	c #73868F",
"=;	c #70848C",
"-;	c #667B82",
";;	c #617479",
">;	c #B4BFC4",
",;	c #6F8289",
"';	c #7A8D94",
");	c #798C93",
"!;	c #788B92",
"~;	c #768991",
"{;	c #758890",
"];	c #73878F",
"^;	c #748D96",
"/;	c #6D5E64",
"(;	c #900606",
"_;	c #7B373A",
":;	c #718C95",
"<;	c #72858E",
"[;	c #6A7F86",
"};	c #718389",
"|;	c #DADFE1",
"1;	c #738891",
"2;	c #718088",
"3;	c #721A1B",
"4;	c #8E0303",
"5;	c #7B3A3D",
"6;	c #718C96",
"7;	c #6E838A",
"8;	c #657981",
"9;	c #576D74",
"0;	c #9AA8AC",
"a;	c #FEFEFE",
"b;	c #657980",
"c;	c #72868D",
"d;	c #778A91",
"e;	c #778991",
"f;	c #758990",
"g;	c #74878F",
"h;	c #738F98",
"i;	c #6F4448",
"j;	c #890000",
"k;	c #82393D",
"l;	c #748690",
"m;	c #738790",
"n;	c #71858C",
"o;	c #6A7E86",
"p;	c #61767D",
"q;	c #72868C",
"r;	c #E1E5E6",
"s;	c #EDEFF0",
"t;	c #60747C",
"u;	c #697D85",
"v;	c #71858D",
"w;	c #72868E",
"x;	c #728991",
"y;	c #6E757C",
"z;	c #830B0B",
"A;	c #812E31",
"B;	c #708A93",
"C;	c #72858D",
"D;	c #6C8088",
"E;	c #667B83",
"F;	c #62777E",
"G;	c #687C83",
"H;	c #798D93",
"I;	c #B9C2C5",
"J;	c #E8EBEC",
"K;	c #839198",
"L;	c #5D6F76",
"M;	c #5D7077",
"N;	c #64787F",
"O;	c #61767E",
"P;	c #5F7B82",
"Q;	c #60676D",
"R;	c #7F1A1B",
"S;	c #5E7179",
"T;	c #5E727A",
"U;	c #5D7179",
"V;	c #5B6F76",
"W;	c #586C73",
"X;	c #576B72",
"Y;	c #566A72",
"Z;	c #556A71",
"`;	c #556970",
" >	c #566B72",
".>	c #7C8F94",
"+>	c #B9C1C4",
"@>	c #FBFBFC",
"#>	c #BEC5C7",
"$>	c #7E8B90",
"%>	c #5D6D74",
"&>	c #586970",
"*>	c #55676E",
"=>	c #54656C",
"->	c #51656C",
";>	c #50636A",
">>	c #565258",
",>	c #701A1B",
"'>	c #900909",
")>	c #840D0D",
"!>	c #4D4E54",
"~>	c #495F66",
"{>	c #4A5C63",
"]>	c #495B62",
"^>	c #495B61",
"/>	c #485A61",
"(>	c #475A60",
"_>	c #475A61",
":>	c #475960",
"<>	c #4D6066",
"[>	c #53656C",
"}>	c #5B6E74",
"|>	c #65767D",
"1>	c #738388",
"2>	c #9FA9AD",
"3>	c #DBDFE0",
"4>	c #EAECEC",
"5>	c #DFE2E3",
"6>	c #DBDDDE",
"7>	c #DADDDE",
"8>	c #DBDCDC",
"9>	c #905B5C",
"0>	c #8F2323",
"a>	c #93201F",
"b>	c #8F1E1E",
"c>	c #8B1F1F",
"d>	c #BFB5B6",
"e>	c #D7DADB",
"f>	c #D7D9D9",
"g>	c #D6D8D9",
"h>	c #D7D8D9",
"i>	c #D7D9DA",
"j>	c #D8DADA",
"k>	c #D8DADB",
"l>	c #D9DBDC",
"m>	c #E2E4E5",
"n>	c #F3F4F4",
". . . . . . . . + @ # $ % & . . . . . . . . . . . . . . . . . . . . . . . . . . . . . . . . . . ",
". . . . . * = - ; > , ' ) ! ~ { ] ] ] ^ / / / ( ( ( { { { { ( ( ( { { { { ( ( { ] ^ _ . . . . . ",
". . . { : < [ } | 1 2 3 4 5 6 7 8 9 0 a b c d e f g h i j k l m n o p q r s t u v v w x y . . . ",
". . z 8 A B C D E F G H I J K L M N O P Q R S T U V W X Y Z `  ...+.@.#.$.%.&.*.=.-.;.>.,.'.).. ",
". !.~.{.].^./.(.E _.:.<.[.}.|.1.2.3.4.5.6.7.8.9.0.a.b.c.d.e.f.g.h.i.j.k.l.m.n.o.p.q.r.s.t.u.v.. ",
"w.x.y.z.A.B.C.D.E.F.G.H.I.J.K.L.M.M N N.O.Q R P.Q.b.R.V S.T.U.V.W.X.Y.Z.`. +%..+*.++@+#+$+%+&+*+",
"=+-+].;+>+,+'+)+!+~+{+]+^+/+(+_+M.:+4.<+O P [+}+|+T 1+2+3+4+5+6+7+8+9+0+a+b+c+n.d+e+f+g+h+i+j+k+",
"l+m+n+o+7 p+q+r+E.s+t+u+v+w+x+y+z+A+M N O B+[+R C+D+E+F+G+H+I+J+W.K+L+M+N+#.$.O+P+Q+R+S+-.#+T+U+",
"V+W+X+Y+Z+`+ @.@+@@@#@$@%@&@*@=@-@;@>@,@'@)@!@~@{@]@^@/@(@_@:@<@[@}@8+|@1@k.2@3@%.4@5@R+6@7@8@9@",
"0@a@b@c@d@e@f@g@h@i@j@k@l@m@n@o@p@q@r@s@t@u@v@w@x@y@z@A@B@C@D@E@F@G@H@I@J@K@a+l.L@%.M@N@e+O@P@Q@",
"R@S@T@c@U@V@W@X@g@Y@Z@k@`@ #.#+#@###$#%#&#*#=#-#;#>#,#'#)#V W !#~#{#]#^#/#Y.N+(#l.L@_#:#<#[#}#|#",
"-+1#2#7 3#4#5#X@g@h@6#7#8#9#0#a#b#c#d#e#f#g#h#i#j#k#l#T b.V V D@m#n#o#p#q#r#s#t#u#v# +w#x#y#5@z#",
"-+1#2#7 A#B#C#X@g@g@6#D#E#F#G#H#I#J#K#L#M#N#O#P#Q#R#P.Q.b.V V W S#E@T#G@U#8+r#M+t#a+V#W#X#O+Y#Z#",
"`#1# $7 .$+$@$X@g@+@6##$$$%$&$*$=$z+-$;$>$,$'$)$M.!$~${$]$1+^$/$S#Y ~#{#($H@_$:$<$[$Z.}$|$1$c+2$",
"0@3$4$7 5$6$7$8$g@9$_.0$D#a$b$c$d$e$f$L g$h$i$j$k$l$m$n$o$p$q$E+r$s$t$u$v$<@w$x$y$z$A$@.k.(#B$C$",
"A D$E$7 d@F$G$H$X@9$I$6#J$K$L$M$N$y+O$P$Q$R$S$T$U$V$W$X$Y$Z$`$ %.%+%@%#%$%%%&%*%=%-%;%J@>%K@k.,%",
"A '%)%7 !%~%{%]%X@^%/%~+(%_%:%<%[%}%|%1%2%3%V$4%5%6%7%8%9%0%a%b%c%d%e%f%g%h%i%j%k%l%m%n%o%p%>%q%",
"A '%)%7 r%s%t%u%X@h@9$i@F.v%w%x%y%z%A%B%C%D%E%F%G%H%I%J%K%L%M%N%O%P%Q%R%S%T%U%V%W%X%Y%Z%`%8+/# &",
".&+&)%7 r%.$@&#&$&g@%&9$@@F w%&&*&=&-&;&>&,&'&)&!&~&{&]&^&/&(&_&:&<&[&}&|&1&2&3&4&5&6&7&8&9&0&a&",
"b&+&)%7 r%c@c&d&e&X@g@f&/%s+g&h&i&j&k&l&m&n&o&p&q&<+N.r&Q#s&t&u&v&w&b.b.x&y&z&W X Y A&~#<@F@B&C&",
"D&+&)%7 r%r%E&F&G&X@g@h@^%i@H&I&7#J&K&L&M&N&O&P&Q&M N N O B+Q [+}+S |+Q.R&b.V V V W D@!#Y A&n#S&",
"D&+&)%7 r%r%.$T&U&X@g@g@h@9$V&W&X&Y&Z&`& *p@.*+*@*M.M #*<+O B+Q [+R P.|+Q.R&b.U V V V W W S#Y $*",
"b&%*)%7 r%r%&***=*-*X@g@g@+@;*s+6#J$>*3 k&,*'*)*!*M.M M #*<+O B+Q Q R R S S Q.R&b.b.V V V V W ~*",
"{*%*)%7 r%r%]*^*/*(*X@g@g@h@_*;*s+(%G $$:*<*[*}*|*1*M.M.M 4.N O O P Q [+R }+S |+Q.T b.b.b.V W 2*",
"3*%*)%7 r%4*5*6*7*8*X@g@g@g@g@g@+@9*v%0*D#;*a*b*c*d*f$M.M.M 4.N <+O B+Q [+R R P.S |+Q.Q.T b.V e*",
"f*%*)%7 r%>+g*h*i*j*g@g@g@g@g@g@g@i@6#w%~+8$k*l*m*n*e$f$o*M.M M p*<+O O.B+Q [+R R R P.S |+|+b.q*",
"3*].)%r*>+s*t*u*v*w*x*g@g@g@g@g@g@9$I$@@y*z*A*B*C*C*D*E*f$F*M.M M G*N N N.O B+Q Q [+R R R }+|+H*",
"3*].b@4*I*J*K*L*M*N*O*X@g@g@g@g@g@y*+@X@P*Q*R*S*T*U*C*d$e$V*f$M.M.M M N N <+O O.B+B+Q Q [+[+S W*",
"x.].X*>+g*K*Y*Z*`* =.=X@g@g@g@g@g@g@g@g@+=@=#=$=%=&=*=C*d$e$E*f$F*M.M.M M N N <+<+N.O.B+B+P ==-=",
";=>=,=s*K*Y*'=)=!=~={=X@g@g@g@g@g@g@g@g@]=^=/=(=_=%=&=U*:=C*D*e$V*f$<=M.M.M M M N N N N.O O P [=",
"}=|=1=J*Y*'=2=3=4=5=6=g@g@g@g@g@g@g@7=8=9=0=a=b=c=d=$=&=T*U*:=C*d$e$V*f$F*M.M.M.M M M #*N N O e=",
"}=f=g=h=4$i=j=k=l=m=n=g@g@g@g@g@g@a*o=p=q=r=s=t=u=v=d=d=%=&=*=U*:=C*d$e$V*V*f$w=M.M.M.x=y=M N z=",
"}=f=A=T@B=C=D=E=F=G=H=x*g@g@g@g@7=I=J=K=L=t=t=t=t=t=[%c=d=$=%=T*T*U*:=d$d$e$e$E*V*f$F*F*M.M.M M=",
"N=O=P=Q=j=D=,=R=S=T=U=O*g@g@g@V=W=X=Y=t=t=t=t=t=t=t=t=[%[%d=_=$=&=T**=U*:=C*d$D*e$E*V*f$f$f$M.].",
"Z=`= -.-D=+-@-#-$-%-&-.=X@g@[**-=-<%R*t=t=t=t=t=t=t=t=t=t=[%--c=_=_=%=T*T*;-:=:=d$C*D*D*e$e$F*>-",
",-'-)-!-~-{-]-^-/-(-_-:-g@8$<-[-}-L=t=t=t=t=t=t=t=t=t=t=t=t=|-[%[%c=d=_=$=%=&=T*T*U*U*:=:=d$e$1-",
"2-'-3-~-@-4-5-6-7-8-9-0-g@[*a-b-c-t=t=t=t=t=t=t=t=t=t=t=t=t=t=t=[%[%c=d=_=$=%=&=&=T*T*U*U*U*D*d-",
"2-'-e-@-4-5-f-g-h-i-j-k-x*$&l-m-n-t=t=t=t=t=t=t=t=t=t=t=t=t=t=t=t=t=t=[%[%o-c=d=$=_=%=%=&=T*:=p-",
"q-'-r-4-s-t-u-v-w-x-y-z-A-X@B-C-D-E-t=t=t=t=t=t=t=t=t=t=t=t=t=t=t=t=t=t=t=R*[%[%--d=d=d=d=$=T*F-",
"G-H-I-5- -u-J-e-K-L-M-N-O-P-Q-R-S-T-U-[%V-t=t=t=t=t=t=t=t=t=t=t=t=t=t=t=t=t=t=t=|-[%[%[%v=c=d=F-",
"W-X-Y-Z-)-3-e-r-`- ;.;+;@;#;$;%;&;*;=;-;%=V-t=t=t=t=t=t=t=t=t=t=t=t=t=t=t=t=t=t=t=t=t=t=t=t=t=;;",
">;%=,;J-3-';);!;~;{;];^;/;@$(;_;:;*;*;<;[;f=t=V-t=t=t=t=t=t=t=t=t=t=t=t=t=t=t=t=t=t=t=t=t=t=V-};",
"|;f$'%{;';);`-~;{;];*;1;2;3;4;5;6;*;*;*;*;7;8;*=t=t=t=t=t=t=t=t=t=t=t=t=t=t=t=t=t=t=t=t=t=9;].0;",
"a;!%D*b;c;d;e;f;g;*;*;*;h;i;j;k;6;*;*;*;l;m;n;o;p;%=t=t=t=t=t=t=t=t=t=t=t=t=t=t=t=t=t=V-V-'%q;r;",
". s;!;H-t;u;T-v;w;w;w;w;x;y;z;A;B;<;<;w;<;C;=;D;E;F;'-&=d=[%[%[%[%[%[%[%[%[%[%t=t=t=V-[%G;H;I;. ",
". . J;K;L;M;`=z.N;b;U-O;P;Q;0-R;S;<=`=T;T;H-U;V;[%u=W;X;Y;Z;`;`;`;`;`;`;`;`;Z; >W;V;'%q;.>+>. . ",
". . . @>#>$>%>&>*>=>->;>>>,>'>)>!>~>{>]>^>/>/>(>_>/>/>:>:>:>:>:>:>:>:>(>/>{><>[>}>|>1>2>3>. . . ",
". . . . . . 4>5>6>7>8>9>0>a>b>c>d>e>f>g>g>g>g>g>g>g>g>g>g>g>g>g>h>h>i>i>i>j>k>l>6>m>n>. . . . . "};
